Negeri,Longitute,Latitude
Perlis,100.1615267,6.4871029
Kedah,100.5566058,5.9288806
Pulau Pinang,100.2399297,5.3921444
Perak,100.8817542,4.2333363
Selangor,101.3566274,3.3587592
W.P. Kuala Lumpur,101.6555408,3.1350934
W.P. Putrajaya,101.6613397,2.9263611
Negeri Sembilan,102.1725581,2.8157855
Melaka,102.2621508,2.3176846
Johor,103.3176806,2.1061484
Pahang,102.2607692,3.8884359
Terengganu,102.8163361,4.948076
Kelantan,101.8553998,5.331785
Sarawak,112.7432976,2.6196553
Sabah,116.8212044,5.4887648
W.P. Labuan,115.2068957,5.3180107
