"","state","panggilan_kebakaran","panggilan_menyelamat","panggilan_khidmatKhas","panggilan_palsu","kebakaran_mati","kebakaran_cedera","menyelamat_mati","menyelamat_cedera","taksiran_kerugian","taksiran_diselamatkan"
"1","JOHOR",6807,5046,325,193,18,62,219,661,1087233783.53,2897768644
"2","KEDAH",2709,3520,480,78,10,48,103,356,43337936.76,1009907739.24
"3","KELANTAN",1912,839,156,26,9,21,108,327,18954208,56362922
"4","MELAKA",1892,1453,373,14,7,14,57,272,646800760,441269238
"5","NEGERI SEMBILAN",1645,1063,15,48,7,28,69,427,266972101.5,788320573.5
"6","PAHANG",2559,1860,75,22,2,33,140,513,43053307.64,1237058153.36
"7","PERAK",3589,3862,85,2,14,68,165,684,57111055.76,10363753172.27
"8","PERLIS",717,383,22,4,0,7,11,84,5770220,32534180
"9","PULAU PINANG",2731,3265,91,140,3,18,77,406,85223155.5,1005433216.18
"10","SABAH",3327,2488,39,8,33,30,114,368,802533279.88,323008925.12
"11","SARAWAK",2139,3004,38,33,13,16,168,343,162722350.69,1652592747.72
"12","SELANGOR",6827,8451,59,45,23,60,216,653,1005472661.83,6368500398.92
"13","TERENGGANU",1996,1149,150,12,6,22,64,265,119492369.18,2601079506.52
"14","WP KUALA LUMPUR",1621,1892,9,55,8,38,62,155,51824436.68,151863357.12
"15","WP LABUAN",307,393,7,3,0,2,4,13,497330,4060670
"16","WP PUTRAJAYA",87,433,27,0,0,0,2,21,833175,520973125
